{
    "crates": [
        {
            "badges": [],
            "categories": null,
            "created_at": "2016-09-07T15:22:40.491981+00:00",
            "description": "Parser for Rust source code",
            "documentation": "https://docs.rs/syn",
            "downloads": 83057224,
            "exact_match": true,
            "homepage": null,
            "id": "syn",
            "keywords": null,
            "links": {
                "owner_team": "/api/v1/crates/syn/owner_team",
                "owner_user": "/api/v1/crates/syn/owner_user",
                "owners": "/api/v1/crates/syn/owners",
                "reverse_dependencies": "/api/v1/crates/syn/reverse_dependencies",
                "version_downloads": "/api/v1/crates/syn/downloads",
                "versions": "/api/v1/crates/syn/versions"
            },
            "max_stable_version": "1.0.81",
            "max_version": "1.0.81",
            "name": "syn",
            "newest_version": "1.0.81",
            "recent_downloads": 13231164,
            "repository": "https://github.com/dtolnay/syn",
            "updated_at": "2021-10-26T19:28:34.386577+00:00",
            "versions": null
        },
        {
            "badges": [],
            "categories": null,
            "created_at": "2019-09-07T21:16:39.101446+00:00",
            "description": "Library to serialize and deserialize Syn syntax trees.\n",
            "documentation": "https://docs.rs/syn-serde",
            "downloads": 1926,
            "exact_match": false,
            "homepage": null,
            "id": "syn-serde",
            "keywords": null,
            "links": {
                "owner_team": "/api/v1/crates/syn-serde/owner_team",
                "owner_user": "/api/v1/crates/syn-serde/owner_user",
                "owners": "/api/v1/crates/syn-serde/owners",
                "reverse_dependencies": "/api/v1/crates/syn-serde/reverse_dependencies",
                "version_downloads": "/api/v1/crates/syn-serde/downloads",
                "versions": "/api/v1/crates/syn-serde/versions"
            },
            "max_stable_version": "0.2.3",
            "max_version": "0.2.3",
            "name": "syn-serde",
            "newest_version": "0.2.3",
            "recent_downloads": 534,
            "repository": "https://github.com/taiki-e/syn-serde",
            "updated_at": "2021-04-06T14:19:25.412064+00:00",
            "versions": null
        },
        {
            "badges": [
                {
                    "attributes": {
                        "branch": null,
                        "repository": "botika/syn-impersonated"
                    },
                    "badge_type": "travis-ci"
                }
            ],
            "categories": null,
            "created_at": "2020-04-14T10:25:34.750380+00:00",
            "description": "Parser for Rust source code",
            "documentation": "https://docs.rs/syn-impersonated",
            "downloads": 4352,
            "exact_match": false,
            "homepage": null,
            "id": "syn-impersonated",
            "keywords": null,
            "links": {
                "owner_team": "/api/v1/crates/syn-impersonated/owner_team",
                "owner_user": "/api/v1/crates/syn-impersonated/owner_user",
                "owners": "/api/v1/crates/syn-impersonated/owners",
                "reverse_dependencies": "/api/v1/crates/syn-impersonated/reverse_dependencies",
                "version_downloads": "/api/v1/crates/syn-impersonated/downloads",
                "versions": "/api/v1/crates/syn-impersonated/versions"
            },
            "max_stable_version": "0.1.18",
            "max_version": "0.1.18",
            "name": "syn-impersonated",
            "newest_version": "0.1.18",
            "recent_downloads": 37,
            "repository": "https://github.com/botika/syn-impersonated",
            "updated_at": "2020-04-24T18:08:38.977093+00:00",
            "versions": null
        },
        {
            "badges": [
                {
                    "attributes": {
                        "branch": null,
                        "repository": "dtolnay/syn"
                    },
                    "badge_type": "travis-ci"
                }
            ],
            "categories": null,
            "created_at": "2018-09-02T03:17:06.842423+00:00",
            "description": "Parser for Rust source code",
            "documentation": "https://docs.rs/syn",
            "downloads": 2167,
            "exact_match": false,
            "homepage": null,
            "id": "syn-next",
            "keywords": null,
            "links": {
                "owner_team": "/api/v1/crates/syn-next/owner_team",
                "owner_user": "/api/v1/crates/syn-next/owner_user",
                "owners": "/api/v1/crates/syn-next/owners",
                "reverse_dependencies": "/api/v1/crates/syn-next/reverse_dependencies",
                "version_downloads": "/api/v1/crates/syn-next/downloads",
                "versions": "/api/v1/crates/syn-next/versions"
            },
            "max_stable_version": null,
            "max_version": "1.0.0-rc4",
            "name": "syn-next",
            "newest_version": "1.0.0-rc4",
            "recent_downloads": 38,
            "repository": "https://github.com/dtolnay/syn",
            "updated_at": "2019-08-12T03:54:47.495587+00:00",
            "versions": null
        },
        {
            "badges": [],
            "categories": null,
            "created_at": "2019-05-13T17:51:39.646786+00:00",
            "description": "Parser for Rust source code (patched for pub items)",
            "documentation": "https://docs.rs/syn-pub-items",
            "downloads": 475,
            "exact_match": false,
            "homepage": null,
            "id": "syn-pub-items",
            "keywords": null,
            "links": {
                "owner_team": "/api/v1/crates/syn-pub-items/owner_team",
                "owner_user": "/api/v1/crates/syn-pub-items/owner_user",
                "owners": "/api/v1/crates/syn-pub-items/owners",
                "reverse_dependencies": "/api/v1/crates/syn-pub-items/reverse_dependencies",
                "version_downloads": "/api/v1/crates/syn-pub-items/downloads",
                "versions": "/api/v1/crates/syn-pub-items/versions"
            },
            "max_stable_version": "0.15.30",
            "max_version": "0.15.30",
            "name": "syn-pub-items",
            "newest_version": "0.15.30",
            "recent_downloads": 34,
            "repository": "https://github.com/swfsql/syn",
            "updated_at": "2019-05-13T17:51:39.646786+00:00",
            "versions": null
        },
        {
            "badges": [],
            "categories": null,
            "created_at": "2021-06-25T17:53:43.535307+00:00",
            "description": "Steroids for `syn`, `quote` and `proc-macro2` crates.",
            "documentation": "https://docs.rs/synthez",
            "downloads": 1272,
            "exact_match": false,
            "homepage": "https://github.com/arcana-rs/synthez",
            "id": "synthez",
            "keywords": null,
            "links": {
                "owner_team": "/api/v1/crates/synthez/owner_team",
                "owner_user": "/api/v1/crates/synthez/owner_user",
                "owners": "/api/v1/crates/synthez/owners",
                "reverse_dependencies": "/api/v1/crates/synthez/reverse_dependencies",
                "version_downloads": "/api/v1/crates/synthez/downloads",
                "versions": "/api/v1/crates/synthez/versions"
            },
            "max_stable_version": "0.2.0",
            "max_version": "0.2.0",
            "name": "synthez",
            "newest_version": "0.2.0",
            "recent_downloads": 1253,
            "repository": "https://github.com/arcana-rs/synthez",
            "updated_at": "2021-10-27T15:51:04.954633+00:00",
            "versions": null
        },
        {
            "badges": [],
            "categories": null,
            "created_at": "2020-10-11T19:24:49.763168+00:00",
            "description": "Derive macro for `syn::parse::Parse`",
            "documentation": null,
            "downloads": 930,
            "exact_match": false,
            "homepage": null,
            "id": "derive-syn-parse",
            "keywords": null,
            "links": {
                "owner_team": "/api/v1/crates/derive-syn-parse/owner_team",
                "owner_user": "/api/v1/crates/derive-syn-parse/owner_user",
                "owners": "/api/v1/crates/derive-syn-parse/owners",
                "reverse_dependencies": "/api/v1/crates/derive-syn-parse/reverse_dependencies",
                "version_downloads": "/api/v1/crates/derive-syn-parse/downloads",
                "versions": "/api/v1/crates/derive-syn-parse/versions"
            },
            "max_stable_version": "0.1.5",
            "max_version": "0.1.5",
            "name": "derive-syn-parse",
            "newest_version": "0.1.5",
            "recent_downloads": 329,
            "repository": "https://github.com/sharnoff/derive-syn-parse",
            "updated_at": "2021-03-20T23:34:00.503682+00:00",
            "versions": null
        },
        {
            "badges": [],
            "categories": null,
            "created_at": "2021-02-07T11:24:42.168094+00:00",
            "description": "Library to be used to build a custom SIEM with the framework uSIEM",
            "documentation": null,
            "downloads": 157,
            "exact_match": false,
            "homepage": null,
            "id": "u-siem-sonicwall",
            "keywords": null,
            "links": {
                "owner_team": "/api/v1/crates/u-siem-sonicwall/owner_team",
                "owner_user": "/api/v1/crates/u-siem-sonicwall/owner_user",
                "owners": "/api/v1/crates/u-siem-sonicwall/owners",
                "reverse_dependencies": "/api/v1/crates/u-siem-sonicwall/reverse_dependencies",
                "version_downloads": "/api/v1/crates/u-siem-sonicwall/downloads",
                "versions": "/api/v1/crates/u-siem-sonicwall/versions"
            },
            "max_stable_version": "0.0.10",
            "max_version": "0.0.10",
            "name": "u-siem-sonicwall",
            "newest_version": "0.0.10",
            "recent_downloads": 32,
            "repository": "https://github.com/u-siem/u-siem-core",
            "updated_at": "2021-10-25T18:56:36.800864+00:00",
            "versions": null
        },
        {
            "badges": [],
            "categories": null,
            "created_at": "2019-05-12T03:23:16.165340+00:00",
            "description": "A PEG parser generator for Syn",
            "documentation": null,
            "downloads": 224,
            "exact_match": false,
            "homepage": null,
            "id": "pegcel-macros",
            "keywords": null,
            "links": {
                "owner_team": "/api/v1/crates/pegcel-macros/owner_team",
                "owner_user": "/api/v1/crates/pegcel-macros/owner_user",
                "owners": "/api/v1/crates/pegcel-macros/owners",
                "reverse_dependencies": "/api/v1/crates/pegcel-macros/reverse_dependencies",
                "version_downloads": "/api/v1/crates/pegcel-macros/downloads",
                "versions": "/api/v1/crates/pegcel-macros/versions"
            },
            "max_stable_version": "0.1.0",
            "max_version": "0.1.0",
            "name": "pegcel-macros",
            "newest_version": "0.1.0",
            "recent_downloads": 5,
            "repository": "https://github.com/CAD97/pegcel",
            "updated_at": "2019-05-12T03:23:16.165340+00:00",
            "versions": null
        },
        {
            "badges": [],
            "categories": null,
            "created_at": "2019-02-14T15:29:19.458186+00:00",
            "description": "Providing the features between \"full\" and \"derive\" of syn.\n",
            "documentation": "https://docs.rs/syn-mid",
            "downloads": 3272252,
            "exact_match": false,
            "homepage": null,
            "id": "syn-mid",
            "keywords": null,
            "links": {
                "owner_team": "/api/v1/crates/syn-mid/owner_team",
                "owner_user": "/api/v1/crates/syn-mid/owner_user",
                "owners": "/api/v1/crates/syn-mid/owners",
                "reverse_dependencies": "/api/v1/crates/syn-mid/reverse_dependencies",
                "version_downloads": "/api/v1/crates/syn-mid/downloads",
                "versions": "/api/v1/crates/syn-mid/versions"
            },
            "max_stable_version": "0.5.3",
            "max_version": "0.5.3",
            "name": "syn-mid",
            "newest_version": "0.5.3",
            "recent_downloads": 244511,
            "repository": "https://github.com/taiki-e/syn-mid",
            "updated_at": "2021-01-05T15:18:24.654297+00:00",
            "versions": null
        }
    ],
    "meta": {
        "next_page": "?page=2&per_page=10&q=syn",
        "prev_page": null,
        "total": 1103
    }
}